{
  "language": "Solidity",
  "sources": {
    "contracts/facets/CoreFacet.sol": {
      "content": "//SPDX-License-Identifier: Unlicense\npragma solidity 0.8.10;\n\nimport \"@openzeppelin/contracts/interfaces/IERC20Metadata.sol\";\nimport \"../libraries/LibAppStorage.sol\";\nimport \"@openzeppelin/contracts/utils/Strings.sol\";\nimport \"@openzeppelin/contracts/utils/Address.sol\";\nimport \"@openzeppelin/contracts/utils/Context.sol\";\nimport \"@openzeppelin/contracts/interfaces/IERC20.sol\";\nimport \"@openzeppelin/contracts/token/ERC20/utils/SafeERC20.sol\";\nimport \"@openzeppelin/contracts/utils/math/SafeMath.sol\";\nimport \"@openzeppelin/contracts/security/ReentrancyGuard.sol\";\n\ncontract CoreFacet is Modifiers, ReentrancyGuard {\n    using Address for address;\n    using SafeERC20 for IERC20;\n    using SafeMath for uint256;\n\n    event BatchLock(address[] beneficiaries, uint256[] amounts);\n    event Lock(address beneficiary, uint256 amount);\n    event Release(address indexed beneficiary, uint256 amount);\n    event OwnerWithdraw(address indexed beneficiary);\n    event Edit(address indexed beneficiary, uint256 amount);\n\n\n    function lockAddress(address user) public view returns (Vesting memory) {\n        return s._vestings[user];\n    }\n\n    function remaining(address user) public view returns (uint256) {\n        return s._vestings[user].total - s._vestings[user].released;\n    }\n\n    function released(address user) public view returns (uint256) {\n        return s._vestings[user].released;\n    }\n\n    function token() external view returns (address) {\n        return address(s._erc20Token);\n    }\n\n    function tgeTimestamp() public view returns (uint256) {\n        return s._tgeTimestamp;\n    }\n\n    function vestingStartTimestamp() external view returns (uint256) {\n        return s._vestingStart;\n    }\n\n    function percentForTGE() external view returns (uint32) {\n        return s._percentForTGE;\n    }\n\n    function percentForVesting() external view returns (uint32) {\n        return s._percentForVesting;\n    }\n\n    function totalRound() external view returns (uint) {\n        return s._totalRound;\n    }\n\n    function timePerRound() external view returns (uint256) {\n        return s._timePerRound;\n    }\n\n    function currentRound() public view returns (uint) {\n        uint64 timePassed = uint64((block.timestamp) - s._vestingStart);\n        uint current = uint(timePassed / s._timePerRound);\n        return current <= s._totalRound ? current : s._totalRound;\n    }\n\n    function currentReleasable() external view returns(uint256){\n        return s._claimable;\n    }\n\n    function total() external view returns(uint256){\n        return s._total;\n    }\n\n    function blocktime() external view returns(uint256){\n        return block.timestamp;\n    }\n\n    // batch lock token for many addresses in one transaction\n    // the amount will be vested will follow the equation : vested = amount - immedialyReleased\n    function batchLock(\n        address[] calldata beneficiaries,\n        uint256[] calldata amounts\n    ) external beforeTGE onlyOwner nonReentrant {\n        require(\n            beneficiaries.length == amounts.length ,\"Bizverse: Inputs not valid\"\n        );\n        uint8 length = uint8(beneficiaries.length);\n        uint256 totalAmount = 0;\n        for (uint i = 0; i < length; i++) {\n            require(\n                beneficiaries[i] != address(0),\n                \"Bizverse: Can not batch lock to black hole\"\n            );\n            s._vestings[beneficiaries[i]] = Vesting(amounts[i], 0);\n            totalAmount += amounts[i];\n        }\n        s._total += totalAmount;\n        emit BatchLock(beneficiaries, amounts);\n    }\n\n    function changeWallet(address _old, address _new) external beforeTGE onlyOwner{\n        s._vestings[_new] = Vesting(s._vestings[_old].total, 0);\n        emit Lock(_new, s._vestings[_old].total);\n        s._vestings[_old].total = 0;\n        s._vestings[_old].released = 0;\n        emit OwnerWithdraw(_old);\n    }\n\n    function deposit() external beforeTGE {\n        s._erc20Token.transferFrom(msg.sender, address(this), s._total - s._erc20Token.balanceOf(address(this)));\n    }\n\n    function changeAmount(address _add, uint256 _amount) external beforeTGE onlyOwner{\n        s._total -= s._vestings[_add].total;\n        s._vestings[_add] = Vesting(_amount, 0);\n        s._total += _amount;\n        emit Edit(_add, _amount);\n    }\n\n    /**\n     * Owner withdraw beneficiary (use for incorrect wallet data)\n     */\n    function ownerWithdraw(address beneficiary) external onlyOwner {\n        uint256 remain = remaining(beneficiary);\n        require(\n            remain > 0,\n            \"Bizverse: Beneficiary not exist or claim over\"\n        );\n        s._erc20Token.transfer(msg.sender, remain);\n        s._total -= remain;\n        s._vestings[beneficiary].total = 0;\n        s._vestings[beneficiary].released = 0;\n        emit OwnerWithdraw(beneficiary);\n    }\n\n}\n"
    },
    "@openzeppelin/contracts/interfaces/IERC20Metadata.sol": {
      "content": "// SPDX-License-Identifier: MIT\n// OpenZeppelin Contracts v4.4.1 (interfaces/IERC20Metadata.sol)\n\npragma solidity ^0.8.0;\n\nimport \"../token/ERC20/extensions/IERC20Metadata.sol\";\n"
    },
    "contracts/libraries/LibAppStorage.sol": {
      "content": "//SPDX-License-Identifier: Unlicense\npragma solidity 0.8.10;\n\nimport \"hardhat-deploy/solc_0.8/diamond/UsingDiamondOwner.sol\";\nimport \"@openzeppelin/contracts/utils/Strings.sol\";\nimport \"@openzeppelin/contracts/utils/Context.sol\";\nimport \"@openzeppelin/contracts/utils/math/SafeMath.sol\";\nimport \"@openzeppelin/contracts/token/ERC20/utils/SafeERC20.sol\";\nimport \"@openzeppelin/contracts/interfaces/IERC20.sol\";\n\n// DO NOT MODIFIY FIELDS ORDER\n// JUST ADD NEW FIELDS\n\nstruct Vesting {\n    uint256 total;\n    uint256 released;\n}\n\nstruct AppStorage {\n\n    /**\n     * Metadata\n     */\n    uint256 _claimable;\n    uint256 _total;\n\n    // Vesting wallet for every user\n    mapping(address => Vesting) _vestings;\n\n    // Whitelist\n    mapping(address => bool) _whitelist;\n\n    // Define token\n    IERC20 _erc20Token;\n\n    // Define time point\n    uint64 _tgeTimestamp;\n    uint64 _vestingStart;\n\n    // Define time\n    // the vesting will end at the timestamp: _vestingStart + (_totalRound * _timePerRound)\n    uint _totalRound;\n    uint256 _timePerRound;\n\n    // Define Percent\n    // i.e 3% = 300, 50% = 5000\n    uint32 _percentForTGE;\n    uint32 _percentForVesting;\n\n    // Time constant\n    uint timePerWeek;\n}\n\nlibrary LibAppStorage {\n    function diamondStorage() internal pure returns (AppStorage storage s) {\n        assembly {\n            s.slot := 0\n        }\n    }\n}\n\ncontract Modifiers is UsingDiamondOwner {\n    AppStorage internal s;\n\n  modifier beforeTGE() {\n        require(\n            block.timestamp < s._tgeTimestamp,\n            \"Bizverse: Action must be before TGE\"\n        );\n        _;\n    }\n\n    modifier afterTGE() {\n        require(\n            block.timestamp >= s._tgeTimestamp,\n            \"Bizverse: Action must be after TGE\"\n        );\n        _;\n    }\n\n    modifier ownLock(address user) {\n        require(\n            s._vestings[user].total > 0,\n            \"Bizverse: Nothing to release\"\n        );\n        _;\n    }\n}"
    },
    "@openzeppelin/contracts/utils/Strings.sol": {
      "content": "// SPDX-License-Identifier: MIT\n// OpenZeppelin Contracts (last updated v4.7.0) (utils/Strings.sol)\n\npragma solidity ^0.8.0;\n\n/**\n * @dev String operations.\n */\nlibrary Strings {\n    bytes16 private constant _HEX_SYMBOLS = \"0123456789abcdef\";\n    uint8 private constant _ADDRESS_LENGTH = 20;\n\n    /**\n     * @dev Converts a `uint256` to its ASCII `string` decimal representation.\n     */\n    function toString(uint256 value) internal pure returns (string memory) {\n        // Inspired by OraclizeAPI's implementation - MIT licence\n        // https://github.com/oraclize/ethereum-api/blob/b42146b063c7d6ee1358846c198246239e9360e8/oraclizeAPI_0.4.25.sol\n\n        if (value == 0) {\n            return \"0\";\n        }\n        uint256 temp = value;\n        uint256 digits;\n        while (temp != 0) {\n            digits++;\n            temp /= 10;\n        }\n        bytes memory buffer = new bytes(digits);\n        while (value != 0) {\n            digits -= 1;\n            buffer[digits] = bytes1(uint8(48 + uint256(value % 10)));\n            value /= 10;\n        }\n        return string(buffer);\n    }\n\n    /**\n     * @dev Converts a `uint256` to its ASCII `string` hexadecimal representation.\n     */\n    function toHexString(uint256 value) internal pure returns (string memory) {\n        if (value == 0) {\n            return \"0x00\";\n        }\n        uint256 temp = value;\n        uint256 length = 0;\n        while (temp != 0) {\n            length++;\n            temp >>= 8;\n        }\n        return toHexString(value, length);\n    }\n\n    /**\n     * @dev Converts a `uint256` to its ASCII `string` hexadecimal representation with fixed length.\n     */\n    function toHexString(uint256 value, uint256 length) internal pure returns (string memory) {\n        bytes memory buffer = new bytes(2 * length + 2);\n        buffer[0] = \"0\";\n        buffer[1] = \"x\";\n        for (uint256 i = 2 * length + 1; i > 1; --i) {\n            buffer[i] = _HEX_SYMBOLS[value & 0xf];\n            value >>= 4;\n        }\n        require(value == 0, \"Strings: hex length insufficient\");\n        return string(buffer);\n    }\n\n    /**\n     * @dev Converts an `address` with fixed length of 20 bytes to its not checksummed ASCII `string` hexadecimal representation.\n     */\n    function toHexString(address addr) internal pure returns (string memory) {\n        return toHexString(uint256(uint160(addr)), _ADDRESS_LENGTH);\n    }\n}\n"
    },
    "@openzeppelin/contracts/utils/Address.sol": {
      "content": "// SPDX-License-Identifier: MIT\n// OpenZeppelin Contracts (last updated v4.7.0) (utils/Address.sol)\n\npragma solidity ^0.8.1;\n\n/**\n * @dev Collection of functions related to the address type\n */\nlibrary Address {\n    /**\n     * @dev Returns true if `account` is a contract.\n     *\n     * [IMPORTANT]\n     * ====\n     * It is unsafe to assume that an address for which this function returns\n     * false is an externally-owned account (EOA) and not a contract.\n     *\n     * Among others, `isContract` will return false for the following\n     * types of addresses:\n     *\n     *  - an externally-owned account\n     *  - a contract in construction\n     *  - an address where a contract will be created\n     *  - an address where a contract lived, but was destroyed\n     * ====\n     *\n     * [IMPORTANT]\n     * ====\n     * You shouldn't rely on `isContract` to protect against flash loan attacks!\n     *\n     * Preventing calls from contracts is highly discouraged. It breaks composability, breaks support for smart wallets\n     * like Gnosis Safe, and does not provide security since it can be circumvented by calling from a contract\n     * constructor.\n     * ====\n     */\n    function isContract(address account) internal view returns (bool) {\n        // This method relies on extcodesize/address.code.length, which returns 0\n        // for contracts in construction, since the code is only stored at the end\n        // of the constructor execution.\n\n        return account.code.length > 0;\n    }\n\n    /**\n     * @dev Replacement for Solidity's `transfer`: sends `amount` wei to\n     * `recipient`, forwarding all available gas and reverting on errors.\n     *\n     * https://eips.ethereum.org/EIPS/eip-1884[EIP1884] increases the gas cost\n     * of certain opcodes, possibly making contracts go over the 2300 gas limit\n     * imposed by `transfer`, making them unable to receive funds via\n     * `transfer`. {sendValue} removes this limitation.\n     *\n     * https://diligence.consensys.net/posts/2019/09/stop-using-soliditys-transfer-now/[Learn more].\n     *\n     * IMPORTANT: because control is transferred to `recipient`, care must be\n     * taken to not create reentrancy vulnerabilities. Consider using\n     * {ReentrancyGuard} or the\n     * https://solidity.readthedocs.io/en/v0.5.11/security-considerations.html#use-the-checks-effects-interactions-pattern[checks-effects-interactions pattern].\n     */\n    function sendValue(address payable recipient, uint256 amount) internal {\n        require(address(this).balance >= amount, \"Address: insufficient balance\");\n\n        (bool success, ) = recipient.call{value: amount}(\"\");\n        require(success, \"Address: unable to send value, recipient may have reverted\");\n    }\n\n    /**\n     * @dev Performs a Solidity function call using a low level `call`. A\n     * plain `call` is an unsafe replacement for a function call: use this\n     * function instead.\n     *\n     * If `target` reverts with a revert reason, it is bubbled up by this\n     * function (like regular Solidity function calls).\n     *\n     * Returns the raw returned data. To convert to the expected return value,\n     * use https://solidity.readthedocs.io/en/latest/units-and-global-variables.html?highlight=abi.decode#abi-encoding-and-decoding-functions[`abi.decode`].\n     *\n     * Requirements:\n     *\n     * - `target` must be a contract.\n     * - calling `target` with `data` must not revert.\n     *\n     * _Available since v3.1._\n     */\n    function functionCall(address target, bytes memory data) internal returns (bytes memory) {\n        return functionCall(target, data, \"Address: low-level call failed\");\n    }\n\n    /**\n     * @dev Same as {xref-Address-functionCall-address-bytes-}[`functionCall`], but with\n     * `errorMessage` as a fallback revert reason when `target` reverts.\n     *\n     * _Available since v3.1._\n     */\n    function functionCall(\n        address target,\n        bytes memory data,\n        string memory errorMessage\n    ) internal returns (bytes memory) {\n        return functionCallWithValue(target, data, 0, errorMessage);\n    }\n\n    /**\n     * @dev Same as {xref-Address-functionCall-address-bytes-}[`functionCall`],\n     * but also transferring `value` wei to `target`.\n     *\n     * Requirements:\n     *\n     * - the calling contract must have an ETH balance of at least `value`.\n     * - the called Solidity function must be `payable`.\n     *\n     * _Available since v3.1._\n     */\n    function functionCallWithValue(\n        address target,\n        bytes memory data,\n        uint256 value\n    ) internal returns (bytes memory) {\n        return functionCallWithValue(target, data, value, \"Address: low-level call with value failed\");\n    }\n\n    /**\n     * @dev Same as {xref-Address-functionCallWithValue-address-bytes-uint256-}[`functionCallWithValue`], but\n     * with `errorMessage` as a fallback revert reason when `target` reverts.\n     *\n     * _Available since v3.1._\n     */\n    function functionCallWithValue(\n        address target,\n        bytes memory data,\n        uint256 value,\n        string memory errorMessage\n    ) internal returns (bytes memory) {\n        require(address(this).balance >= value, \"Address: insufficient balance for call\");\n        require(isContract(target), \"Address: call to non-contract\");\n\n        (bool success, bytes memory returndata) = target.call{value: value}(data);\n        return verifyCallResult(success, returndata, errorMessage);\n    }\n\n    /**\n     * @dev Same as {xref-Address-functionCall-address-bytes-}[`functionCall`],\n     * but performing a static call.\n     *\n     * _Available since v3.3._\n     */\n    function functionStaticCall(address target, bytes memory data) internal view returns (bytes memory) {\n        return functionStaticCall(target, data, \"Address: low-level static call failed\");\n    }\n\n    /**\n     * @dev Same as {xref-Address-functionCall-address-bytes-string-}[`functionCall`],\n     * but performing a static call.\n     *\n     * _Available since v3.3._\n     */\n    function functionStaticCall(\n        address target,\n        bytes memory data,\n        string memory errorMessage\n    ) internal view returns (bytes memory) {\n        require(isContract(target), \"Address: static call to non-contract\");\n\n        (bool success, bytes memory returndata) = target.staticcall(data);\n        return verifyCallResult(success, returndata, errorMessage);\n    }\n\n    /**\n     * @dev Same as {xref-Address-functionCall-address-bytes-}[`functionCall`],\n     * but performing a delegate call.\n     *\n     * _Available since v3.4._\n     */\n    function functionDelegateCall(address target, bytes memory data) internal returns (bytes memory) {\n        return functionDelegateCall(target, data, \"Address: low-level delegate call failed\");\n    }\n\n    /**\n     * @dev Same as {xref-Address-functionCall-address-bytes-string-}[`functionCall`],\n     * but performing a delegate call.\n     *\n     * _Available since v3.4._\n     */\n    function functionDelegateCall(\n        address target,\n        bytes memory data,\n        string memory errorMessage\n    ) internal returns (bytes memory) {\n        require(isContract(target), \"Address: delegate call to non-contract\");\n\n        (bool success, bytes memory returndata) = target.delegatecall(data);\n        return verifyCallResult(success, returndata, errorMessage);\n    }\n\n    /**\n     * @dev Tool to verifies that a low level call was successful, and revert if it wasn't, either by bubbling the\n     * revert reason using the provided one.\n     *\n     * _Available since v4.3._\n     */\n    function verifyCallResult(\n        bool success,\n        bytes memory returndata,\n        string memory errorMessage\n    ) internal pure returns (bytes memory) {\n        if (success) {\n            return returndata;\n        } else {\n            // Look for revert reason and bubble it up if present\n            if (returndata.length > 0) {\n                // The easiest way to bubble the revert reason is using memory via assembly\n                /// @solidity memory-safe-assembly\n                assembly {\n                    let returndata_size := mload(returndata)\n                    revert(add(32, returndata), returndata_size)\n                }\n            } else {\n                revert(errorMessage);\n            }\n        }\n    }\n}\n"
    },
    "@openzeppelin/contracts/utils/Context.sol": {
      "content": "// SPDX-License-Identifier: MIT\n// OpenZeppelin Contracts v4.4.1 (utils/Context.sol)\n\npragma solidity ^0.8.0;\n\n/**\n * @dev Provides information about the current execution context, including the\n * sender of the transaction and its data. While these are generally available\n * via msg.sender and msg.data, they should not be accessed in such a direct\n * manner, since when dealing with meta-transactions the account sending and\n * paying for execution may not be the actual sender (as far as an application\n * is concerned).\n *\n * This contract is only required for intermediate, library-like contracts.\n */\nabstract contract Context {\n    function _msgSender() internal view virtual returns (address) {\n        return msg.sender;\n    }\n\n    function _msgData() internal view virtual returns (bytes calldata) {\n        return msg.data;\n    }\n}\n"
    },
    "@openzeppelin/contracts/interfaces/IERC20.sol": {
      "content": "// SPDX-License-Identifier: MIT\n// OpenZeppelin Contracts v4.4.1 (interfaces/IERC20.sol)\n\npragma solidity ^0.8.0;\n\nimport \"../token/ERC20/IERC20.sol\";\n"
    },
    "@openzeppelin/contracts/token/ERC20/utils/SafeERC20.sol": {
      "content": "// SPDX-License-Identifier: MIT\n// OpenZeppelin Contracts (last updated v4.7.0) (token/ERC20/utils/SafeERC20.sol)\n\npragma solidity ^0.8.0;\n\nimport \"../IERC20.sol\";\nimport \"../extensions/draft-IERC20Permit.sol\";\nimport \"../../../utils/Address.sol\";\n\n/**\n * @title SafeERC20\n * @dev Wrappers around ERC20 operations that throw on failure (when the token\n * contract returns false). Tokens that return no value (and instead revert or\n * throw on failure) are also supported, non-reverting calls are assumed to be\n * successful.\n * To use this library you can add a `using SafeERC20 for IERC20;` statement to your contract,\n * which allows you to call the safe operations as `token.safeTransfer(...)`, etc.\n */\nlibrary SafeERC20 {\n    using Address for address;\n\n    function safeTransfer(\n        IERC20 token,\n        address to,\n        uint256 value\n    ) internal {\n        _callOptionalReturn(token, abi.encodeWithSelector(token.transfer.selector, to, value));\n    }\n\n    function safeTransferFrom(\n        IERC20 token,\n        address from,\n        address to,\n        uint256 value\n    ) internal {\n        _callOptionalReturn(token, abi.encodeWithSelector(token.transferFrom.selector, from, to, value));\n    }\n\n    /**\n     * @dev Deprecated. This function has issues similar to the ones found in\n     * {IERC20-approve}, and its usage is discouraged.\n     *\n     * Whenever possible, use {safeIncreaseAllowance} and\n     * {safeDecreaseAllowance} instead.\n     */\n    function safeApprove(\n        IERC20 token,\n        address spender,\n        uint256 value\n    ) internal {\n        // safeApprove should only be called when setting an initial allowance,\n        // or when resetting it to zero. To increase and decrease it, use\n        // 'safeIncreaseAllowance' and 'safeDecreaseAllowance'\n        require(\n            (value == 0) || (token.allowance(address(this), spender) == 0),\n            \"SafeERC20: approve from non-zero to non-zero allowance\"\n        );\n        _callOptionalReturn(token, abi.encodeWithSelector(token.approve.selector, spender, value));\n    }\n\n    function safeIncreaseAllowance(\n        IERC20 token,\n        address spender,\n        uint256 value\n    ) internal {\n        uint256 newAllowance = token.allowance(address(this), spender) + value;\n        _callOptionalReturn(token, abi.encodeWithSelector(token.approve.selector, spender, newAllowance));\n    }\n\n    function safeDecreaseAllowance(\n        IERC20 token,\n        address spender,\n        uint256 value\n    ) internal {\n        unchecked {\n            uint256 oldAllowance = token.allowance(address(this), spender);\n            require(oldAllowance >= value, \"SafeERC20: decreased allowance below zero\");\n            uint256 newAllowance = oldAllowance - value;\n            _callOptionalReturn(token, abi.encodeWithSelector(token.approve.selector, spender, newAllowance));\n        }\n    }\n\n    function safePermit(\n        IERC20Permit token,\n        address owner,\n        address spender,\n        uint256 value,\n        uint256 deadline,\n        uint8 v,\n        bytes32 r,\n        bytes32 s\n    ) internal {\n        uint256 nonceBefore = token.nonces(owner);\n        token.permit(owner, spender, value, deadline, v, r, s);\n        uint256 nonceAfter = token.nonces(owner);\n        require(nonceAfter == nonceBefore + 1, \"SafeERC20: permit did not succeed\");\n    }\n\n    /**\n     * @dev Imitates a Solidity high-level call (i.e. a regular function call to a contract), relaxing the requirement\n     * on the return value: the return value is optional (but if data is returned, it must not be false).\n     * @param token The token targeted by the call.\n     * @param data The call data (encoded using abi.encode or one of its variants).\n     */\n    function _callOptionalReturn(IERC20 token, bytes memory data) private {\n        // We need to perform a low level call here, to bypass Solidity's return data size checking mechanism, since\n        // we're implementing it ourselves. We use {Address.functionCall} to perform this call, which verifies that\n        // the target address contains contract code and also asserts for success in the low-level call.\n\n        bytes memory returndata = address(token).functionCall(data, \"SafeERC20: low-level call failed\");\n        if (returndata.length > 0) {\n            // Return data is optional\n            require(abi.decode(returndata, (bool)), \"SafeERC20: ERC20 operation did not succeed\");\n        }\n    }\n}\n"
    },
    "@openzeppelin/contracts/utils/math/SafeMath.sol": {
      "content": "// SPDX-License-Identifier: MIT\n// OpenZeppelin Contracts (last updated v4.6.0) (utils/math/SafeMath.sol)\n\npragma solidity ^0.8.0;\n\n// CAUTION\n// This version of SafeMath should only be used with Solidity 0.8 or later,\n// because it relies on the compiler's built in overflow checks.\n\n/**\n * @dev Wrappers over Solidity's arithmetic operations.\n *\n * NOTE: `SafeMath` is generally not needed starting with Solidity 0.8, since the compiler\n * now has built in overflow checking.\n */\nlibrary SafeMath {\n    /**\n     * @dev Returns the addition of two unsigned integers, with an overflow flag.\n     *\n     * _Available since v3.4._\n     */\n    function tryAdd(uint256 a, uint256 b) internal pure returns (bool, uint256) {\n        unchecked {\n            uint256 c = a + b;\n            if (c < a) return (false, 0);\n            return (true, c);\n        }\n    }\n\n    /**\n     * @dev Returns the subtraction of two unsigned integers, with an overflow flag.\n     *\n     * _Available since v3.4._\n     */\n    function trySub(uint256 a, uint256 b) internal pure returns (bool, uint256) {\n        unchecked {\n            if (b > a) return (false, 0);\n            return (true, a - b);\n        }\n    }\n\n    /**\n     * @dev Returns the multiplication of two unsigned integers, with an overflow flag.\n     *\n     * _Available since v3.4._\n     */\n    function tryMul(uint256 a, uint256 b) internal pure returns (bool, uint256) {\n        unchecked {\n            // Gas optimization: this is cheaper than requiring 'a' not being zero, but the\n            // benefit is lost if 'b' is also tested.\n            // See: https://github.com/OpenZeppelin/openzeppelin-contracts/pull/522\n            if (a == 0) return (true, 0);\n            uint256 c = a * b;\n            if (c / a != b) return (false, 0);\n            return (true, c);\n        }\n    }\n\n    /**\n     * @dev Returns the division of two unsigned integers, with a division by zero flag.\n     *\n     * _Available since v3.4._\n     */\n    function tryDiv(uint256 a, uint256 b) internal pure returns (bool, uint256) {\n        unchecked {\n            if (b == 0) return (false, 0);\n            return (true, a / b);\n        }\n    }\n\n    /**\n     * @dev Returns the remainder of dividing two unsigned integers, with a division by zero flag.\n     *\n     * _Available since v3.4._\n     */\n    function tryMod(uint256 a, uint256 b) internal pure returns (bool, uint256) {\n        unchecked {\n            if (b == 0) return (false, 0);\n            return (true, a % b);\n        }\n    }\n\n    /**\n     * @dev Returns the addition of two unsigned integers, reverting on\n     * overflow.\n     *\n     * Counterpart to Solidity's `+` operator.\n     *\n     * Requirements:\n     *\n     * - Addition cannot overflow.\n     */\n    function add(uint256 a, uint256 b) internal pure returns (uint256) {\n        return a + b;\n    }\n\n    /**\n     * @dev Returns the subtraction of two unsigned integers, reverting on\n     * overflow (when the result is negative).\n     *\n     * Counterpart to Solidity's `-` operator.\n     *\n     * Requirements:\n     *\n     * - Subtraction cannot overflow.\n     */\n    function sub(uint256 a, uint256 b) internal pure returns (uint256) {\n        return a - b;\n    }\n\n    /**\n     * @dev Returns the multiplication of two unsigned integers, reverting on\n     * overflow.\n     *\n     * Counterpart to Solidity's `*` operator.\n     *\n     * Requirements:\n     *\n     * - Multiplication cannot overflow.\n     */\n    function mul(uint256 a, uint256 b) internal pure returns (uint256) {\n        return a * b;\n    }\n\n    /**\n     * @dev Returns the integer division of two unsigned integers, reverting on\n     * division by zero. The result is rounded towards zero.\n     *\n     * Counterpart to Solidity's `/` operator.\n     *\n     * Requirements:\n     *\n     * - The divisor cannot be zero.\n     */\n    function div(uint256 a, uint256 b) internal pure returns (uint256) {\n        return a / b;\n    }\n\n    /**\n     * @dev Returns the remainder of dividing two unsigned integers. (unsigned integer modulo),\n     * reverting when dividing by zero.\n     *\n     * Counterpart to Solidity's `%` operator. This function uses a `revert`\n     * opcode (which leaves remaining gas untouched) while Solidity uses an\n     * invalid opcode to revert (consuming all remaining gas).\n     *\n     * Requirements:\n     *\n     * - The divisor cannot be zero.\n     */\n    function mod(uint256 a, uint256 b) internal pure returns (uint256) {\n        return a % b;\n    }\n\n    /**\n     * @dev Returns the subtraction of two unsigned integers, reverting with custom message on\n     * overflow (when the result is negative).\n     *\n     * CAUTION: This function is deprecated because it requires allocating memory for the error\n     * message unnecessarily. For custom revert reasons use {trySub}.\n     *\n     * Counterpart to Solidity's `-` operator.\n     *\n     * Requirements:\n     *\n     * - Subtraction cannot overflow.\n     */\n    function sub(\n        uint256 a,\n        uint256 b,\n        string memory errorMessage\n    ) internal pure returns (uint256) {\n        unchecked {\n            require(b <= a, errorMessage);\n            return a - b;\n        }\n    }\n\n    /**\n     * @dev Returns the integer division of two unsigned integers, reverting with custom message on\n     * division by zero. The result is rounded towards zero.\n     *\n     * Counterpart to Solidity's `/` operator. Note: this function uses a\n     * `revert` opcode (which leaves remaining gas untouched) while Solidity\n     * uses an invalid opcode to revert (consuming all remaining gas).\n     *\n     * Requirements:\n     *\n     * - The divisor cannot be zero.\n     */\n    function div(\n        uint256 a,\n        uint256 b,\n        string memory errorMessage\n    ) internal pure returns (uint256) {\n        unchecked {\n            require(b > 0, errorMessage);\n            return a / b;\n        }\n    }\n\n    /**\n     * @dev Returns the remainder of dividing two unsigned integers. (unsigned integer modulo),\n     * reverting with custom message when dividing by zero.\n     *\n     * CAUTION: This function is deprecated because it requires allocating memory for the error\n     * message unnecessarily. For custom revert reasons use {tryMod}.\n     *\n     * Counterpart to Solidity's `%` operator. This function uses a `revert`\n     * opcode (which leaves remaining gas untouched) while Solidity uses an\n     * invalid opcode to revert (consuming all remaining gas).\n     *\n     * Requirements:\n     *\n     * - The divisor cannot be zero.\n     */\n    function mod(\n        uint256 a,\n        uint256 b,\n        string memory errorMessage\n    ) internal pure returns (uint256) {\n        unchecked {\n            require(b > 0, errorMessage);\n            return a % b;\n        }\n    }\n}\n"
    },
    "@openzeppelin/contracts/security/ReentrancyGuard.sol": {
      "content": "// SPDX-License-Identifier: MIT\n// OpenZeppelin Contracts v4.4.1 (security/ReentrancyGuard.sol)\n\npragma solidity ^0.8.0;\n\n/**\n * @dev Contract module that helps prevent reentrant calls to a function.\n *\n * Inheriting from `ReentrancyGuard` will make the {nonReentrant} modifier\n * available, which can be applied to functions to make sure there are no nested\n * (reentrant) calls to them.\n *\n * Note that because there is a single `nonReentrant` guard, functions marked as\n * `nonReentrant` may not call one another. This can be worked around by making\n * those functions `private`, and then adding `external` `nonReentrant` entry\n * points to them.\n *\n * TIP: If you would like to learn more about reentrancy and alternative ways\n * to protect against it, check out our blog post\n * https://blog.openzeppelin.com/reentrancy-after-istanbul/[Reentrancy After Istanbul].\n */\nabstract contract ReentrancyGuard {\n    // Booleans are more expensive than uint256 or any type that takes up a full\n    // word because each write operation emits an extra SLOAD to first read the\n    // slot's contents, replace the bits taken up by the boolean, and then write\n    // back. This is the compiler's defense against contract upgrades and\n    // pointer aliasing, and it cannot be disabled.\n\n    // The values being non-zero value makes deployment a bit more expensive,\n    // but in exchange the refund on every call to nonReentrant will be lower in\n    // amount. Since refunds are capped to a percentage of the total\n    // transaction's gas, it is best to keep them low in cases like this one, to\n    // increase the likelihood of the full refund coming into effect.\n    uint256 private constant _NOT_ENTERED = 1;\n    uint256 private constant _ENTERED = 2;\n\n    uint256 private _status;\n\n    constructor() {\n        _status = _NOT_ENTERED;\n    }\n\n    /**\n     * @dev Prevents a contract from calling itself, directly or indirectly.\n     * Calling a `nonReentrant` function from another `nonReentrant`\n     * function is not supported. It is possible to prevent this from happening\n     * by making the `nonReentrant` function external, and making it call a\n     * `private` function that does the actual work.\n     */\n    modifier nonReentrant() {\n        // On the first call to nonReentrant, _notEntered will be true\n        require(_status != _ENTERED, \"ReentrancyGuard: reentrant call\");\n\n        // Any calls to nonReentrant after this point will fail\n        _status = _ENTERED;\n\n        _;\n\n        // By storing the original value once again, a refund is triggered (see\n        // https://eips.ethereum.org/EIPS/eip-2200)\n        _status = _NOT_ENTERED;\n    }\n}\n"
    },
    "@openzeppelin/contracts/token/ERC20/extensions/IERC20Metadata.sol": {
      "content": "// SPDX-License-Identifier: MIT\n// OpenZeppelin Contracts v4.4.1 (token/ERC20/extensions/IERC20Metadata.sol)\n\npragma solidity ^0.8.0;\n\nimport \"../IERC20.sol\";\n\n/**\n * @dev Interface for the optional metadata functions from the ERC20 standard.\n *\n * _Available since v4.1._\n */\ninterface IERC20Metadata is IERC20 {\n    /**\n     * @dev Returns the name of the token.\n     */\n    function name() external view returns (string memory);\n\n    /**\n     * @dev Returns the symbol of the token.\n     */\n    function symbol() external view returns (string memory);\n\n    /**\n     * @dev Returns the decimals places of the token.\n     */\n    function decimals() external view returns (uint8);\n}\n"
    },
    "@openzeppelin/contracts/token/ERC20/IERC20.sol": {
      "content": "// SPDX-License-Identifier: MIT\n// OpenZeppelin Contracts (last updated v4.6.0) (token/ERC20/IERC20.sol)\n\npragma solidity ^0.8.0;\n\n/**\n * @dev Interface of the ERC20 standard as defined in the EIP.\n */\ninterface IERC20 {\n    /**\n     * @dev Emitted when `value` tokens are moved from one account (`from`) to\n     * another (`to`).\n     *\n     * Note that `value` may be zero.\n     */\n    event Transfer(address indexed from, address indexed to, uint256 value);\n\n    /**\n     * @dev Emitted when the allowance of a `spender` for an `owner` is set by\n     * a call to {approve}. `value` is the new allowance.\n     */\n    event Approval(address indexed owner, address indexed spender, uint256 value);\n\n    /**\n     * @dev Returns the amount of tokens in existence.\n     */\n    function totalSupply() external view returns (uint256);\n\n    /**\n     * @dev Returns the amount of tokens owned by `account`.\n     */\n    function balanceOf(address account) external view returns (uint256);\n\n    /**\n     * @dev Moves `amount` tokens from the caller's account to `to`.\n     *\n     * Returns a boolean value indicating whether the operation succeeded.\n     *\n     * Emits a {Transfer} event.\n     */\n    function transfer(address to, uint256 amount) external returns (bool);\n\n    /**\n     * @dev Returns the remaining number of tokens that `spender` will be\n     * allowed to spend on behalf of `owner` through {transferFrom}. This is\n     * zero by default.\n     *\n     * This value changes when {approve} or {transferFrom} are called.\n     */\n    function allowance(address owner, address spender) external view returns (uint256);\n\n    /**\n     * @dev Sets `amount` as the allowance of `spender` over the caller's tokens.\n     *\n     * Returns a boolean value indicating whether the operation succeeded.\n     *\n     * IMPORTANT: Beware that changing an allowance with this method brings the risk\n     * that someone may use both the old and the new allowance by unfortunate\n     * transaction ordering. One possible solution to mitigate this race\n     * condition is to first reduce the spender's allowance to 0 and set the\n     * desired value afterwards:\n     * https://github.com/ethereum/EIPs/issues/20#issuecomment-263524729\n     *\n     * Emits an {Approval} event.\n     */\n    function approve(address spender, uint256 amount) external returns (bool);\n\n    /**\n     * @dev Moves `amount` tokens from `from` to `to` using the\n     * allowance mechanism. `amount` is then deducted from the caller's\n     * allowance.\n     *\n     * Returns a boolean value indicating whether the operation succeeded.\n     *\n     * Emits a {Transfer} event.\n     */\n    function transferFrom(\n        address from,\n        address to,\n        uint256 amount\n    ) external returns (bool);\n}\n"
    },
    "hardhat-deploy/solc_0.8/diamond/UsingDiamondOwner.sol": {
      "content": "// SPDX-License-Identifier: MIT\npragma solidity ^0.8.0;\n\nimport \"./libraries/LibDiamond.sol\";\n\ncontract UsingDiamondOwner {\n    modifier onlyOwner() {\n        LibDiamond.DiamondStorage storage ds = LibDiamond.diamondStorage();\n        require(msg.sender == ds.contractOwner, \"Only owner is allowed to perform this action\");\n        _;\n    }\n}\n"
    },
    "hardhat-deploy/solc_0.8/diamond/libraries/LibDiamond.sol": {
      "content": "// SPDX-License-Identifier: MIT\npragma solidity ^0.8.0;\n\n/******************************************************************************\\\n* Author: Nick Mudge <nick@perfectabstractions.com> (https://twitter.com/mudgen)\n* EIP-2535 Diamonds: https://eips.ethereum.org/EIPS/eip-2535\n/******************************************************************************/\nimport { IDiamondCut } from \"../interfaces/IDiamondCut.sol\";\n\nlibrary LibDiamond {\n    bytes32 constant DIAMOND_STORAGE_POSITION = keccak256(\"diamond.standard.diamond.storage\");\n\n    struct FacetAddressAndPosition {\n        address facetAddress;\n        uint96 functionSelectorPosition; // position in facetFunctionSelectors.functionSelectors array\n    }\n\n    struct FacetFunctionSelectors {\n        bytes4[] functionSelectors;\n        uint256 facetAddressPosition; // position of facetAddress in facetAddresses array\n    }\n\n    struct DiamondStorage {\n        // maps function selector to the facet address and\n        // the position of the selector in the facetFunctionSelectors.selectors array\n        mapping(bytes4 => FacetAddressAndPosition) selectorToFacetAndPosition;\n        // maps facet addresses to function selectors\n        mapping(address => FacetFunctionSelectors) facetFunctionSelectors;\n        // facet addresses\n        address[] facetAddresses;\n        // Used to query if a contract implements an interface.\n        // Used to implement ERC-165.\n        mapping(bytes4 => bool) supportedInterfaces;\n        // owner of the contract\n        address contractOwner;\n    }\n\n    function diamondStorage() internal pure returns (DiamondStorage storage ds) {\n        bytes32 position = DIAMOND_STORAGE_POSITION;\n        assembly {\n            ds.slot := position\n        }\n    }\n\n    event OwnershipTransferred(address indexed previousOwner, address indexed newOwner);\n\n    function setContractOwner(address _newOwner) internal {\n        DiamondStorage storage ds = diamondStorage();\n        address previousOwner = ds.contractOwner;\n        ds.contractOwner = _newOwner;\n        emit OwnershipTransferred(previousOwner, _newOwner);\n    }\n\n    function contractOwner() internal view returns (address contractOwner_) {\n        contractOwner_ = diamondStorage().contractOwner;\n    }\n\n    function enforceIsContractOwner() internal view {\n        require(msg.sender == diamondStorage().contractOwner, \"LibDiamond: Must be contract owner\");\n    }\n\n    event DiamondCut(IDiamondCut.FacetCut[] _diamondCut, address _init, bytes _calldata);\n\n    // Internal function version of diamondCut\n    function diamondCut(\n        IDiamondCut.FacetCut[] memory _diamondCut,\n        address _init,\n        bytes memory _calldata\n    ) internal {\n        for (uint256 facetIndex; facetIndex < _diamondCut.length; facetIndex++) {\n            IDiamondCut.FacetCutAction action = _diamondCut[facetIndex].action;\n            if (action == IDiamondCut.FacetCutAction.Add) {\n                addFunctions(_diamondCut[facetIndex].facetAddress, _diamondCut[facetIndex].functionSelectors);\n            } else if (action == IDiamondCut.FacetCutAction.Replace) {\n                replaceFunctions(_diamondCut[facetIndex].facetAddress, _diamondCut[facetIndex].functionSelectors);\n            } else if (action == IDiamondCut.FacetCutAction.Remove) {\n                removeFunctions(_diamondCut[facetIndex].facetAddress, _diamondCut[facetIndex].functionSelectors);\n            } else {\n                revert(\"LibDiamondCut: Incorrect FacetCutAction\");\n            }\n        }\n        emit DiamondCut(_diamondCut, _init, _calldata);\n        initializeDiamondCut(_init, _calldata);\n    }\n\n    function addFunctions(address _facetAddress, bytes4[] memory _functionSelectors) internal {\n        require(_functionSelectors.length > 0, \"LibDiamondCut: No selectors in facet to cut\");\n        DiamondStorage storage ds = diamondStorage();        \n        require(_facetAddress != address(0), \"LibDiamondCut: Add facet can't be address(0)\");\n        uint96 selectorPosition = uint96(ds.facetFunctionSelectors[_facetAddress].functionSelectors.length);\n        // add new facet address if it does not exist\n        if (selectorPosition == 0) {\n            addFacet(ds, _facetAddress);            \n        }\n        for (uint256 selectorIndex; selectorIndex < _functionSelectors.length; selectorIndex++) {\n            bytes4 selector = _functionSelectors[selectorIndex];\n            address oldFacetAddress = ds.selectorToFacetAndPosition[selector].facetAddress;\n            require(oldFacetAddress == address(0), \"LibDiamondCut: Can't add function that already exists\");\n            addFunction(ds, selector, selectorPosition, _facetAddress);\n            selectorPosition++;\n        }\n    }\n\n    function replaceFunctions(address _facetAddress, bytes4[] memory _functionSelectors) internal {\n        require(_functionSelectors.length > 0, \"LibDiamondCut: No selectors in facet to cut\");\n        DiamondStorage storage ds = diamondStorage();\n        require(_facetAddress != address(0), \"LibDiamondCut: Add facet can't be address(0)\");\n        uint96 selectorPosition = uint96(ds.facetFunctionSelectors[_facetAddress].functionSelectors.length);\n        // add new facet address if it does not exist\n        if (selectorPosition == 0) {\n            addFacet(ds, _facetAddress);\n        }\n        for (uint256 selectorIndex; selectorIndex < _functionSelectors.length; selectorIndex++) {\n            bytes4 selector = _functionSelectors[selectorIndex];\n            address oldFacetAddress = ds.selectorToFacetAndPosition[selector].facetAddress;\n            require(oldFacetAddress != _facetAddress, \"LibDiamondCut: Can't replace function with same function\");\n            removeFunction(ds, oldFacetAddress, selector);\n            addFunction(ds, selector, selectorPosition, _facetAddress);\n            selectorPosition++;\n        }\n    }\n\n    function removeFunctions(address _facetAddress, bytes4[] memory _functionSelectors) internal {\n        require(_functionSelectors.length > 0, \"LibDiamondCut: No selectors in facet to cut\");\n        DiamondStorage storage ds = diamondStorage();\n        // if function does not exist then do nothing and return\n        require(_facetAddress == address(0), \"LibDiamondCut: Remove facet address must be address(0)\");\n        for (uint256 selectorIndex; selectorIndex < _functionSelectors.length; selectorIndex++) {\n            bytes4 selector = _functionSelectors[selectorIndex];\n            address oldFacetAddress = ds.selectorToFacetAndPosition[selector].facetAddress;\n            removeFunction(ds, oldFacetAddress, selector);\n        }\n    }\n\n    function addFacet(DiamondStorage storage ds, address _facetAddress) internal {\n        enforceHasContractCode(_facetAddress, \"LibDiamondCut: New facet has no code\");\n        ds.facetFunctionSelectors[_facetAddress].facetAddressPosition = ds.facetAddresses.length;\n        ds.facetAddresses.push(_facetAddress);\n    }    \n\n\n    function addFunction(DiamondStorage storage ds, bytes4 _selector, uint96 _selectorPosition, address _facetAddress) internal {\n        ds.selectorToFacetAndPosition[_selector].functionSelectorPosition = _selectorPosition;\n        ds.facetFunctionSelectors[_facetAddress].functionSelectors.push(_selector);\n        ds.selectorToFacetAndPosition[_selector].facetAddress = _facetAddress;\n    }\n\n    function removeFunction(DiamondStorage storage ds, address _facetAddress, bytes4 _selector) internal {        \n        require(_facetAddress != address(0), \"LibDiamondCut: Can't remove function that doesn't exist\");\n        // an immutable function is a function defined directly in a diamond\n        require(_facetAddress != address(this), \"LibDiamondCut: Can't remove immutable function\");\n        // replace selector with last selector, then delete last selector\n        uint256 selectorPosition = ds.selectorToFacetAndPosition[_selector].functionSelectorPosition;\n        uint256 lastSelectorPosition = ds.facetFunctionSelectors[_facetAddress].functionSelectors.length - 1;\n        // if not the same then replace _selector with lastSelector\n        if (selectorPosition != lastSelectorPosition) {\n            bytes4 lastSelector = ds.facetFunctionSelectors[_facetAddress].functionSelectors[lastSelectorPosition];\n            ds.facetFunctionSelectors[_facetAddress].functionSelectors[selectorPosition] = lastSelector;\n            ds.selectorToFacetAndPosition[lastSelector].functionSelectorPosition = uint96(selectorPosition);\n        }\n        // delete the last selector\n        ds.facetFunctionSelectors[_facetAddress].functionSelectors.pop();\n        delete ds.selectorToFacetAndPosition[_selector];\n\n        // if no more selectors for facet address then delete the facet address\n        if (lastSelectorPosition == 0) {\n            // replace facet address with last facet address and delete last facet address\n            uint256 lastFacetAddressPosition = ds.facetAddresses.length - 1;\n            uint256 facetAddressPosition = ds.facetFunctionSelectors[_facetAddress].facetAddressPosition;\n            if (facetAddressPosition != lastFacetAddressPosition) {\n                address lastFacetAddress = ds.facetAddresses[lastFacetAddressPosition];\n                ds.facetAddresses[facetAddressPosition] = lastFacetAddress;\n                ds.facetFunctionSelectors[lastFacetAddress].facetAddressPosition = facetAddressPosition;\n            }\n            ds.facetAddresses.pop();\n            delete ds.facetFunctionSelectors[_facetAddress].facetAddressPosition;\n        }\n    }\n\n    function initializeDiamondCut(address _init, bytes memory _calldata) internal {\n        if (_init == address(0)) {\n            require(_calldata.length == 0, \"LibDiamondCut: _init is address(0) but_calldata is not empty\");\n        } else {\n            require(_calldata.length > 0, \"LibDiamondCut: _calldata is empty but _init is not address(0)\");\n            if (_init != address(this)) {\n                enforceHasContractCode(_init, \"LibDiamondCut: _init address has no code\");\n            }\n            (bool success, bytes memory error) = _init.delegatecall(_calldata);\n            if (!success) {\n                if (error.length > 0) {\n                    // bubble up the error\n                    revert(string(error));\n                } else {\n                    revert(\"LibDiamondCut: _init function reverted\");\n                }\n            }\n        }\n    }\n\n    function enforceHasContractCode(address _contract, string memory _errorMessage) internal view {\n        uint256 contractSize;\n        assembly {\n            contractSize := extcodesize(_contract)\n        }\n        require(contractSize > 0, _errorMessage);\n    }\n}\n"
    },
    "hardhat-deploy/solc_0.8/diamond/interfaces/IDiamondCut.sol": {
      "content": "// SPDX-License-Identifier: MIT\npragma solidity ^0.8.0;\n\n/******************************************************************************\\\n* Author: Nick Mudge <nick@perfectabstractions.com> (https://twitter.com/mudgen)\n* EIP-2535 Diamonds: https://eips.ethereum.org/EIPS/eip-2535\n/******************************************************************************/\n\ninterface IDiamondCut {\n    enum FacetCutAction {Add, Replace, Remove}\n    // Add=0, Replace=1, Remove=2\n\n    struct FacetCut {\n        address facetAddress;\n        FacetCutAction action;\n        bytes4[] functionSelectors;\n    }\n\n    /// @notice Add/replace/remove any number of functions and optionally execute\n    ///         a function with delegatecall\n    /// @param _diamondCut Contains the facet addresses and function selectors\n    /// @param _init The address of the contract or facet to execute _calldata\n    /// @param _calldata A function call, including function selector and arguments\n    ///                  _calldata is executed with delegatecall on _init\n    function diamondCut(\n        FacetCut[] calldata _diamondCut,\n        address _init,\n        bytes calldata _calldata\n    ) external;\n\n    event DiamondCut(FacetCut[] _diamondCut, address _init, bytes _calldata);\n}\n"
    },
    "@openzeppelin/contracts/token/ERC20/extensions/draft-IERC20Permit.sol": {
      "content": "// SPDX-License-Identifier: MIT\n// OpenZeppelin Contracts v4.4.1 (token/ERC20/extensions/draft-IERC20Permit.sol)\n\npragma solidity ^0.8.0;\n\n/**\n * @dev Interface of the ERC20 Permit extension allowing approvals to be made via signatures, as defined in\n * https://eips.ethereum.org/EIPS/eip-2612[EIP-2612].\n *\n * Adds the {permit} method, which can be used to change an account's ERC20 allowance (see {IERC20-allowance}) by\n * presenting a message signed by the account. By not relying on {IERC20-approve}, the token holder account doesn't\n * need to send a transaction, and thus is not required to hold Ether at all.\n */\ninterface IERC20Permit {\n    /**\n     * @dev Sets `value` as the allowance of `spender` over ``owner``'s tokens,\n     * given ``owner``'s signed approval.\n     *\n     * IMPORTANT: The same issues {IERC20-approve} has related to transaction\n     * ordering also apply here.\n     *\n     * Emits an {Approval} event.\n     *\n     * Requirements:\n     *\n     * - `spender` cannot be the zero address.\n     * - `deadline` must be a timestamp in the future.\n     * - `v`, `r` and `s` must be a valid `secp256k1` signature from `owner`\n     * over the EIP712-formatted function arguments.\n     * - the signature must use ``owner``'s current nonce (see {nonces}).\n     *\n     * For more information on the signature format, see the\n     * https://eips.ethereum.org/EIPS/eip-2612#specification[relevant EIP\n     * section].\n     */\n    function permit(\n        address owner,\n        address spender,\n        uint256 value,\n        uint256 deadline,\n        uint8 v,\n        bytes32 r,\n        bytes32 s\n    ) external;\n\n    /**\n     * @dev Returns the current nonce for `owner`. This value must be\n     * included whenever a signature is generated for {permit}.\n     *\n     * Every successful call to {permit} increases ``owner``'s nonce by one. This\n     * prevents a signature from being used multiple times.\n     */\n    function nonces(address owner) external view returns (uint256);\n\n    /**\n     * @dev Returns the domain separator used in the encoding of the signature for {permit}, as defined by {EIP712}.\n     */\n    // solhint-disable-next-line func-name-mixedcase\n    function DOMAIN_SEPARATOR() external view returns (bytes32);\n}\n"
    },
    "contracts/facets/TeamFacet.sol": {
      "content": "//SPDX-License-Identifier: Unlicense\npragma solidity 0.8.10;\n\nimport \"@openzeppelin/contracts/interfaces/IERC20Metadata.sol\";\nimport \"@openzeppelin/contracts/utils/Strings.sol\";\nimport \"@openzeppelin/contracts/utils/Address.sol\";\nimport \"@openzeppelin/contracts/utils/Context.sol\";\nimport \"@openzeppelin/contracts/interfaces/IERC20.sol\";\nimport \"@openzeppelin/contracts/token/ERC20/utils/SafeERC20.sol\";\nimport \"@openzeppelin/contracts/utils/math/SafeMath.sol\";\nimport \"./CoreFacet.sol\";\n\ncontract TeamFacet is CoreFacet {\n    using Address for address;\n    using SafeERC20 for IERC20;\n    using SafeMath for uint256;\n\n    function tgeTimestampt() external view returns(uint256){\n        return s._tgeTimestamp;\n    }\n\n    /**\n     * Get token released\n     */\n    function getRelease(address _ownLock)\n        public\n        view\n        returns (uint256)\n    {\n        return vested(_ownLock) - released(_ownLock);\n    }\n\n    function calcReleased(address[] calldata beneficiaries) external {\n        s._claimable = 0;\n        for (uint i = 0; i < beneficiaries.length; i++) {\n            s._claimable += vested(beneficiaries[i]);\n        }\n    }\n\n    /**\n     * User call to claim token\n     */\n    function release() external afterTGE ownLock(msg.sender) nonReentrant {\n        uint256 releasable = getRelease(msg.sender);\n        require(releasable != 0, \"Bizverse: Nothing to release\");\n        require(s._erc20Token.transfer(msg.sender, releasable), \"BIVE: Transfer token failure\");\n        s._vestings[msg.sender].released += releasable;\n        emit Release(msg.sender, releasable);\n    }\n\n\n    function vested(address user) public view returns (uint256) {\n        return _vestingSchedule(s._vestings[user].total);\n    }\n\n    function _vestingSchedule(uint256 totalAllocation)\n        internal\n        view\n        returns (uint256)\n    {\n        uint256 time = block.timestamp;\n        if (time - s.timePerWeek < s._tgeTimestamp) return 0;\n        uint256 tgeReleased = (totalAllocation * s._percentForTGE) / 100000;\n        uint256 vestingReleased = totalAllocation - tgeReleased;\n        if (time < s._vestingStart) {\n            return tgeReleased;\n        } else if (time > s._vestingStart + s._totalRound*s._timePerRound) return totalAllocation;\n        else {\n            return\n                ((vestingReleased * currentRound()) / s._totalRound) +\n                tgeReleased;\n        }\n    }\n\n\n}\n"
    },
    "contracts/facets/SeedFacet.sol": {
      "content": "//SPDX-License-Identifier: Unlicense\npragma solidity 0.8.10;\n\nimport \"@openzeppelin/contracts/interfaces/IERC20Metadata.sol\";\nimport \"@openzeppelin/contracts/utils/Strings.sol\";\nimport \"@openzeppelin/contracts/utils/Address.sol\";\nimport \"@openzeppelin/contracts/utils/Context.sol\";\nimport \"@openzeppelin/contracts/interfaces/IERC20.sol\";\nimport \"@openzeppelin/contracts/token/ERC20/utils/SafeERC20.sol\";\nimport \"@openzeppelin/contracts/utils/math/SafeMath.sol\";\nimport \"./CoreFacet.sol\";\n\ncontract SeedFacet is CoreFacet {\n    using Address for address;\n    using SafeERC20 for IERC20;\n    using SafeMath for uint256;\n\n    function tgeTimestampt() external view returns(uint256){\n        return s._tgeTimestamp;\n    }\n\n    /**\n     * Get token released\n     */\n    function getRelease(address _ownLock)\n        public\n        view\n        returns (uint256)\n    {\n        return vested(_ownLock) - released(_ownLock);\n    }\n\n    function calcReleased(address[] calldata beneficiaries) external {\n        s._claimable = 0;\n        for (uint i = 0; i < beneficiaries.length; i++) {\n            s._claimable += vested(beneficiaries[i]);\n        }\n    }\n\n    /**\n     * User call to claim token\n     */\n    function release() external afterTGE ownLock(msg.sender) nonReentrant {\n        uint256 releasable = getRelease(msg.sender);\n        require(releasable != 0, \"Bizverse: Nothing to release\");\n        require(s._erc20Token.transfer(msg.sender, releasable), \"BIVE: Transfer token failure\");\n        s._vestings[msg.sender].released += releasable;\n        emit Release(msg.sender, releasable);\n    }\n\n\n    function vested(address user) public view returns (uint256) {\n        return _vestingSchedule(s._vestings[user].total);\n    }\n\n    function _vestingSchedule(uint256 totalAllocation)\n        internal\n        view\n        returns (uint256)\n    {\n        uint256 time = block.timestamp;\n        if (time - s.timePerWeek < s._tgeTimestamp) return 0;\n        uint256 tgeReleased = (totalAllocation * s._percentForTGE) / 100000;\n        uint256 vestingReleased = totalAllocation - tgeReleased;\n        if (time < s._vestingStart) {\n            return tgeReleased;\n        } else if (time > s._vestingStart + s._totalRound*s._timePerRound) return totalAllocation;\n        else {\n            return\n                ((vestingReleased * currentRound()) / s._totalRound) +\n                tgeReleased;\n        }\n    }\n\n\n}\n"
    },
    "contracts/facets/PublicV2Facet.sol": {
      "content": "//SPDX-License-Identifier: Unlicense\npragma solidity 0.8.10;\n\nimport \"@openzeppelin/contracts/interfaces/IERC20Metadata.sol\";\nimport \"@openzeppelin/contracts/utils/Strings.sol\";\nimport \"@openzeppelin/contracts/utils/Address.sol\";\nimport \"@openzeppelin/contracts/utils/Context.sol\";\nimport \"@openzeppelin/contracts/interfaces/IERC20.sol\";\nimport \"@openzeppelin/contracts/token/ERC20/utils/SafeERC20.sol\";\nimport \"@openzeppelin/contracts/utils/math/SafeMath.sol\";\nimport \"./CoreFacet.sol\";\ncontract PublicV2Facet is CoreFacet {\n    using Address for address;\n    using SafeERC20 for IERC20;\n    using SafeMath for uint256;\n\n    function tgeTimestampt() external view returns(uint256){\n        return s._tgeTimestamp;\n    }\n\n    /**\n     * Get token released\n     */\n    function getRelease(address _ownLock)\n        public\n        view\n        returns (uint256)\n    {\n        return vested(_ownLock) - released(_ownLock);\n    }\n\n    function calcReleased(address[] calldata beneficiaries) external {\n        s._claimable = 0;\n        for (uint i = 0; i < beneficiaries.length; i++) {\n            s._claimable += vested(beneficiaries[i]);\n        }\n    }\n\n    /**\n     * User call to claim token\n     */\n    function release() external afterTGE ownLock(msg.sender) nonReentrant {\n        uint256 releasable = getRelease(msg.sender);\n        require(releasable != 0, \"Bizverse: Nothing to release\");\n        require(s._erc20Token.transfer(msg.sender, releasable), \"BIVE: Transfer token failure\");\n        s._vestings[msg.sender].released += releasable;\n        emit Release(msg.sender, releasable);\n    }\n\n\n    function vested(address user) public view returns (uint256) {\n        return _vestingSchedule(s._vestings[user].total);\n    }\n\n    function _vestingSchedule(uint256 totalAllocation)\n        internal\n        view\n        returns (uint256)\n    {\n        uint256 time = block.timestamp;\n        if (time < s._tgeTimestamp) return 0;\n        uint256 tgeReleased = (totalAllocation * s._percentForTGE) / 100000;\n        uint256 vestingReleased = totalAllocation - tgeReleased;\n        if (time > s._vestingStart + s._totalRound*s._timePerRound) return totalAllocation;\n        else {\n            return\n                ((vestingReleased * currentRound()) / s._totalRound) +\n                tgeReleased;\n        }\n    }\n\n\n}\n"
    },
    "contracts/facets/PublicFacet.sol": {
      "content": "//SPDX-License-Identifier: Unlicense\npragma solidity 0.8.10;\n\nimport \"@openzeppelin/contracts/interfaces/IERC20Metadata.sol\";\nimport \"@openzeppelin/contracts/utils/Strings.sol\";\nimport \"@openzeppelin/contracts/utils/Address.sol\";\nimport \"@openzeppelin/contracts/utils/Context.sol\";\nimport \"@openzeppelin/contracts/interfaces/IERC20.sol\";\nimport \"@openzeppelin/contracts/token/ERC20/utils/SafeERC20.sol\";\nimport \"@openzeppelin/contracts/utils/math/SafeMath.sol\";\nimport \"./CoreFacet.sol\";\n\ncontract PublicFacet is CoreFacet {\n    using Address for address;\n    using SafeERC20 for IERC20;\n    using SafeMath for uint256;\n\n    /**\n     * Get token released\n     */\n    function getRelease(address _ownLock)\n        public\n        view\n        returns (uint256)\n    {\n        if (block.timestamp < tgeTimestamp()) return 0;\n        else return vested(_ownLock) - released(_ownLock);\n    }\n\n    function calcReleased(address[] calldata beneficiaries) external {\n        s._claimable = 0;\n        for (uint i = 0; i < beneficiaries.length; i++) {\n            s._claimable += vested(beneficiaries[i]);\n        }\n    }\n\n    /**\n     * User call to claim token\n     */\n    function release() external afterTGE ownLock(msg.sender) nonReentrant {\n        uint256 releasable = getRelease(msg.sender);\n        require(releasable != 0, \"Bizverse: Nothing to release\");\n        require(s._erc20Token.transfer(msg.sender, releasable), \"BIVE: Transfer token failure\");\n        s._vestings[msg.sender].released += releasable;\n        emit Release(msg.sender, releasable);\n    }\n\n\n    function vested(address user) public view returns (uint256) {\n        return _vestingSchedule(s._vestings[user].total, uint64(block.timestamp));\n    }\n\n    function _vestingSchedule(uint256 totalAllocation, uint64 timestamp)\n        internal\n        view\n        returns (uint256)\n    {\n        if(timestamp < s._tgeTimestamp) return 0;\n        else return totalAllocation;\n    }\n}\n"
    },
    "contracts/facets/PrivateFacet.sol": {
      "content": "//SPDX-License-Identifier: Unlicense\npragma solidity 0.8.10;\n\nimport \"@openzeppelin/contracts/interfaces/IERC20Metadata.sol\";\nimport \"@openzeppelin/contracts/utils/Strings.sol\";\nimport \"@openzeppelin/contracts/utils/Address.sol\";\nimport \"@openzeppelin/contracts/utils/Context.sol\";\nimport \"@openzeppelin/contracts/interfaces/IERC20.sol\";\nimport \"@openzeppelin/contracts/token/ERC20/utils/SafeERC20.sol\";\nimport \"@openzeppelin/contracts/utils/math/SafeMath.sol\";\nimport \"./CoreFacet.sol\";\n\ncontract PrivateFacet is CoreFacet {\n    using Address for address;\n    using SafeERC20 for IERC20;\n    using SafeMath for uint256;\n\n    function tgeTimestampt() external view returns(uint256){\n        return s._tgeTimestamp;\n    }\n\n    /**\n     * Get token released\n     */\n    function getRelease(address _ownLock)\n        public\n        view\n        returns (uint256)\n    {\n        return vested(_ownLock) - released(_ownLock);\n    }\n\n    function calcReleased(address[] calldata beneficiaries) external {\n        s._claimable = 0;\n        for (uint i = 0; i < beneficiaries.length; i++) {\n            s._claimable += vested(beneficiaries[i]);\n        }\n    }\n\n    /**\n     * User call to claim token\n     */\n    function release() external afterTGE ownLock(msg.sender) nonReentrant {\n        uint256 releasable = getRelease(msg.sender);\n        require(releasable != 0, \"Bizverse: Nothing to release\");\n        require(s._erc20Token.transfer(msg.sender, releasable), \"BIVE: Transfer token failure\");\n        s._vestings[msg.sender].released += releasable;\n        emit Release(msg.sender, releasable);\n    }\n\n\n    function vested(address user) public view returns (uint256) {\n        return _vestingSchedule(s._vestings[user].total);\n    }\n\n    function _vestingSchedule(uint256 totalAllocation)\n        internal\n        view\n        returns (uint256)\n    {\n        uint256 time = block.timestamp;\n        if (time - s.timePerWeek < s._tgeTimestamp) return 0;\n        uint256 tgeReleased = (totalAllocation * s._percentForTGE) / 100000;\n        uint256 vestingReleased = totalAllocation - tgeReleased;\n        if (time < s._vestingStart) {\n            return tgeReleased;\n        } else if (time > s._vestingStart + s._totalRound*s._timePerRound) return totalAllocation;\n        else {\n            return\n                ((vestingReleased * currentRound()) / s._totalRound) +\n                tgeReleased;\n        }\n    }\n\n\n}\n"
    }
  },
  "settings": {
    "optimizer": {
      "enabled": false,
      "runs": 200
    },
    "outputSelection": {
      "*": {
        "*": [
          "abi",
          "evm.bytecode",
          "evm.deployedBytecode",
          "evm.methodIdentifiers",
          "metadata",
          "devdoc",
          "userdoc",
          "storageLayout",
          "evm.gasEstimates"
        ],
        "": [
          "ast"
        ]
      }
    },
    "metadata": {
      "useLiteralContent": true
    }
  }
}